…
### Explain how many distinct stations are there.

Use `distinct()` to select station name and line, and then obtain all
unique combinations. As a result, the number of rows in this dataset is
the number of unique stations. There are **465** distinct stations.

``` r
trans_ent %>% 
  select(station_name, line) %>% 
  distinct
```

    ## # A tibble: 465 × 2
    ##    station_name             line    
    ##    <chr>                    <chr>   
    ##  1 25th St                  4 Avenue
    ##  2 36th St                  4 Avenue
    ##  3 45th St                  4 Avenue
    ##  4 53rd St                  4 Avenue
    ##  5 59th St                  4 Avenue
    ##  6 77th St                  4 Avenue
    ##  7 86th St                  4 Avenue
    ##  8 95th St                  4 Avenue
    ##  9 9th St                   4 Avenue
    ## 10 Atlantic Av-Barclays Ctr 4 Avenue
    ## # … with 455 more rows
### Explain how many stations are ADA compliant.

Use `filter()` as an initial step to find how many stations are ADA
cpmpliant. This produces a dataframe in which the number of rows is the
number of ADA compliant stations. Hence, **84** stations are ADA
compliant.

``` r
trans_ent %>% 
  filter(ada == TRUE) %>% 
  select(station_name, line) %>% 
  distinct
```

    ## # A tibble: 84 × 2
    ##    station_name                   line           
    ##    <chr>                          <chr>          
    ##  1 Atlantic Av-Barclays Ctr       4 Avenue       
    ##  2 DeKalb Av                      4 Avenue       
    ##  3 Pacific St                     4 Avenue       
    ##  4 Grand Central                  42nd St Shuttle
    ##  5 34th St                        6 Avenue       
    ##  6 47-50th Sts Rockefeller Center 6 Avenue       
    ##  7 Church Av                      6 Avenue       
    ##  8 21st St                        63rd Street    
    ##  9 Lexington Av                   63rd Street    
    ## 10 Roosevelt Island               63rd Street    
    ## # … with 74 more rows
…
``` r
trans_ent %>% 
  pivot_longer(
    route1:route11,
    names_to = "route_num",
    values_to = "route") %>% 
  filter(route == "A") %>% 
  select(station_name, line) %>% 
  distinct
```

    ## # A tibble: 60 × 2
    ##    station_name                  line           
    ##    <chr>                         <chr>          
    ##  1 Times Square                  42nd St Shuttle
    ##  2 125th St                      8 Avenue       
    ##  3 145th St                      8 Avenue       
    ##  4 14th St                       8 Avenue       
    ##  5 168th St - Washington Heights 8 Avenue       
    ##  6 175th St                      8 Avenue       
    ##  7 181st St                      8 Avenue       
    ##  8 190th St                      8 Avenue       
    ##  9 34th St                       8 Avenue       
    ## 10 42nd St                       8 Avenue       
    ## # … with 50 more rows
…
### Combine the two datasets.

Use code `bind_rows` to combine `mr_trash_df` and `prof_trash_df` , and
get `trash_tidy` dataset.

``` r
trash_tidy = 
  bind_rows(mr_trash_df,prof_trash_df) %>%
  janitor::clean_names() 

trash_tidy
```

    ## # A tibble: 641 × 15
    ##    dumpster month  year date                weight_tons volume…¹ plast…² polys…³
    ##       <dbl> <chr> <dbl> <dttm>                    <dbl>    <dbl>   <dbl>   <dbl>
    ##  1        1 May    2014 2014-05-16 00:00:00        4.31       18    1450    1820
    ##  2        2 May    2014 2014-05-16 00:00:00        2.74       13    1120    1030
    ##  3        3 May    2014 2014-05-16 00:00:00        3.45       15    2450    3100
    ##  4        4 May    2014 2014-05-17 00:00:00        3.1        15    2380    2730
    ##  5        5 May    2014 2014-05-17 00:00:00        4.06       18     980     870
    ##  6        6 May    2014 2014-05-20 00:00:00        2.71       13    1430    2140
    ##  7        7 May    2014 2014-05-21 00:00:00        1.91        8     910    1090
    ##  8        8 May    2014 2014-05-28 00:00:00        3.7        16    3580    4310
    ##  9        9 June   2014 2014-06-05 00:00:00        2.52       14    2400    2790
    ## 10       10 June   2014 2014-06-11 00:00:00        3.76       18    1340    1730
    ## # … with 631 more rows, 7 more variables: cigarette_butts <dbl>,
    ## #   glass_bottles <dbl>, grocery_bags <dbl>, chip_bags <dbl>,
    ## #   sports_balls <int>, homes_powered <dbl>, data_source <chr>, and abbreviated
    ## #   variable names ¹​volume_cubic_yards, ²​plastic_bottles, ³​polystyrene
…
pols_month
```

    ## # A tibble: 822 × 9
    ##     year month gov_gop sen_gop rep_gop gov_dem sen_dem rep_dem president
    ##    <int> <chr>   <dbl>   <dbl>   <dbl>   <dbl>   <dbl>   <dbl> <chr>    
    ##  1  1947 Jan        23      51     253      23      45     198 DEM      
    ##  2  1947 Feb        23      51     253      23      45     198 DEM      
    ##  3  1947 Mar        23      51     253      23      45     198 DEM      
    ##  4  1947 Apr        23      51     253      23      45     198 DEM      
    ##  5  1947 May        23      51     253      23      45     198 DEM      
    ##  6  1947 Jun        23      51     253      23      45     198 DEM      
    ##  7  1947 Jul        23      51     253      23      45     198 DEM      
    ##  8  1947 Aug        23      51     253      23      45     198 DEM      
    ##  9  1947 Sep        23      51     253      23      45     198 DEM      
    ## 10  1947 Oct        23      51     253      23      45     198 DEM      
    ## # … with 812 more rows
…
snp_df
```

    ## # A tibble: 787 × 3
    ##     year month close
    ##    <dbl> <chr> <dbl>
    ##  1  1950 Jan    17.0
    ##  2  1950 Feb    17.2
    ##  3  1950 Mar    17.3
    ##  4  1950 Apr    18.0
    ##  5  1950 May    18.8
    ##  6  1950 Jun    17.7
    ##  7  1950 Jul    17.8
    ##  8  1950 Aug    18.4
    ##  9  1950 Sep    19.5
    ## 10  1950 Oct    19.5
    ## # … with 777 more rows
…
unemploy_df
```

    ## # A tibble: 816 × 3
    ##     year month unemployment_rate
    ##    <int> <chr>             <dbl>
    ##  1  1948 Jan                 3.4
    ##  2  1948 Feb                 3.8
    ##  3  1948 Mar                 4  
    ##  4  1948 Apr                 3.9
    ##  5  1948 May                 3.5
    ##  6  1948 Jun                 3.6
    ##  7  1948 Jul                 3.6
    ##  8  1948 Aug                 3.9
    ##  9  1948 Sep                 3.8
    ## 10  1948 Oct                 3.7
    ## # … with 806 more rows
…
Merging `snp_df` into `pols_month`, and merging `unemploy_df` into the
result using this code chunk, and get the tidy dataset
`snp_pols_unemlop_tidy`.

``` r
snp_pols_tidy = 
  left_join(pols_month, snp_df, by = c("year","month"))

snp_pols_unemlop_tidy = 
  left_join(snp_pols_tidy, unemploy_df,by = c("year","month"))

snp_pols_unemlop_tidy
```

    ## # A tibble: 822 × 11
    ##     year month gov_gop sen_gop rep_gop gov_dem sen_dem rep_dem president close
    ##    <dbl> <chr>   <dbl>   <dbl>   <dbl>   <dbl>   <dbl>   <dbl> <chr>     <dbl>
    ##  1  1947 Jan        23      51     253      23      45     198 DEM          NA
    ##  2  1947 Feb        23      51     253      23      45     198 DEM          NA
    ##  3  1947 Mar        23      51     253      23      45     198 DEM          NA
    ##  4  1947 Apr        23      51     253      23      45     198 DEM          NA
    ##  5  1947 May        23      51     253      23      45     198 DEM          NA
    ##  6  1947 Jun        23      51     253      23      45     198 DEM          NA
    ##  7  1947 Jul        23      51     253      23      45     198 DEM          NA
    ##  8  1947 Aug        23      51     253      23      45     198 DEM          NA
    ##  9  1947 Sep        23      51     253      23      45     198 DEM          NA
    ## 10  1947 Oct        23      51     253      23      45     198 DEM          NA
    ## # … with 812 more rows, and 1 more variable: unemployment_rate <dbl>
…
